Homework1
…
word_counts <- texts %>%
  unnest_tokens(word, text) %>%
  mutate(word = str_to_lower(word)) %>%
  anti_join(all_stopwords, by = "word") %>%
  count(doc_title, word, sort = TRUE)

word_counts

# A tibble: 7,443 × 3
   doc_title word            n
   <chr>     <chr>       <int>
 1 Text A    trade         232
 2 Text A    exchange      186
 3 Text B    trade         185
 4 Text A    ſo            184
 5 Text A    malynes       158
 6 Text A    merchants     126
 7 Text A    mony          118
 8 Text A    hee           115
 9 Text A    kingdome      113
10 Text A    commodities    96
# ℹ 7,433 more rows
…
bigrams <- texts %>%
  unnest_tokens(bigram, text, token = "ngrams", n = 2)

bigrams

# A tibble: 53,809 × 2
   doc_title bigram           
   <chr>     <chr>            
 1 Text A    the circle       
 2 Text A    circle of        
 3 Text A    of commerce      
 4 Text A    commerce the     
 5 Text A    the prooeme      
 6 Text A    prooeme herodotvs
 7 Text A    herodotvs in     
 8 Text A    in his           
 9 Text A    his clio         
10 Text A    clio reportes    
# ℹ 53,799 more rows

bigrams_separated <- bigrams %>%
  separate(bigram, into = c("word1", "word2"), sep = " ")

bigrams_separated

# A tibble: 53,809 × 3
   doc_title word1     word2    
   <chr>     <chr>     <chr>    
 1 Text A    the       circle   
 2 Text A    circle    of       
 3 Text A    of        commerce 
 4 Text A    commerce  the      
 5 Text A    the       prooeme  
 6 Text A    prooeme   herodotvs
 7 Text A    herodotvs in       
 8 Text A    in        his      
 9 Text A    his       clio     
10 Text A    clio      reportes 
# ℹ 53,799 more rows

bigrams_filtered <- bigrams_separated %>%
  filter(
    !word1 %in% all_stopwords$word,
    !word2 %in% all_stopwords$word
  )

bigrams_filtered

# A tibble: 7,622 × 3
   doc_title word1    word2    
   <chr>     <chr>    <chr>    
 1 Text A    prooeme  herodotvs
 2 Text A    clio     reportes 
 3 Text A    croesvs  king     
 4 Text A    ſonne    borne    
 5 Text A    borne    dumbe    
 6 Text A    king     himſelf  
 7 Text A    imminent danger   
 8 Text A    certaine perſian  
 9 Text A    perſian  ready    
10 Text A    lay      violent  
# ℹ 7,612 more rows

bigram_counts <- bigrams_filtered %>%
  count(doc_title, word1, word2, sort = TRUE)

bigram_counts

# A tibble: 6,449 × 4
   doc_title word1     word2           n
   <chr>     <chr>     <chr>       <int>
 1 Text B    common    wealth         48
 2 Text A    merchants adventurers    35
 3 Text B    latin     alphabet       34
 4 Text A    low       countries      21
 5 Text B    east      india          20
 6 Text A    free      trade          19
 7 Text A    latin     alphabet       17
 8 Text A    natiue    commodities    17
 9 Text A    forraine  commodities    16
10 Text A    letters   patents        14
# ℹ 6,439 more rows

bigram_counts <- bigram_counts %>%
  unite(bigram, word1, word2, sep = " ")

bigram_counts

# A tibble: 6,449 × 3
   doc_title bigram                    n
   <chr>     <chr>                 <int>
 1 Text B    common wealth            48
 2 Text A    merchants adventurers    35
 3 Text B    latin alphabet           34
 4 Text A    low countries            21
 5 Text B    east india               20
 6 Text A    free trade               19
 7 Text A    latin alphabet           17
 8 Text A    natiue commodities       17
 9 Text A    forraine commodities     16
10 Text A    letters patents          14
# ℹ 6,439 more rows
…
bigram_wide <- bigram_relative %>%
  select(doc_title, bigram, proportion) %>%
  pivot_wider(
    names_from = doc_title,
    values_from = proportion,
    values_fill = 0
  )

bigram_wide

# A tibble: 6,379 × 3
   bigram                `Text B` `Text A`
   <chr>                    <dbl>    <dbl>
 1 common wealth         0.0187    0.00257
 2 merchants adventurers 0         0.00692
 3 latin alphabet        0.0133    0.00336
 4 low countries         0.00156   0.00415
 5 east india            0.00780   0      
 6 free trade            0         0.00376
 7 natiue commodities    0.00273   0.00336
 8 forraine commodities  0         0.00316
 9 letters patents       0.000390  0.00277
10 thouſand pounds       0         0.00277
# ℹ 6,369 more rows
…
